Introduction to R
…
read_xls: reads an excel file. You will need to have the package readxl installed and loaded.

col <- read_xls("../data/COL.xls")

## # A tibble: 65 x 13
##     year population y_pop y_pop_us_100 y_wkr y_wkr_us_100 growth_100   i_y   g_y
##    <dbl>      <dbl> <dbl>        <dbl> <dbl>        <dbl> <chr>      <dbl> <dbl>
##  1  1950       11.9  3143         21.5  9820         27.1 NaN         25.8  6.89
##  2  1951       12.3  3092         20.0  9786         26.1 -1.6431     25.1  7.74
##  3  1952       12.7  3196         20.4 10247         26.7 3.3111000~  26.2  7.76
##  4  1953       13.1  3364         20.8 10926         27.6 5.1102999~  27.5  8.68
##  5  1954       13.5  3571         22.6 11751         29.3 5.9764999~  30.7  8.22
##  6  1955       14.0  3591         21.5 11963         28.5 0.5639999~  31.1  8.43
##  7  1956       14.4  3557         21.2 11978         28.6 -0.951500~  31.0  8.03
##  8  1957       14.9  3436         20.4 11695         27.4 -3.469800~  28.6  7.22
##  9  1958       15.4  3319         20.2 11423         26.6 -3.444100~  25.0  7.60
## 10  1959       15.9  3405         19.7 11846         26.3 2.5419999~  25.0  7.22
## # ... with 55 more rows, and 4 more variables: ed_att <chr>, nx_y <dbl>,
## #   x_m_y <dbl>, ex_rate <dbl>
…
beatles.catalog %>%  select(-num.tracks)

## # A tibble: 3 x 2
##   album                 year
##   <chr>                <dbl>
## 1 Please Please Me      1963
## 2 Rubber Soul           1965
## 3 Magical Mystery Tour  1967

Renaming variables can also be done using select(). The syntax will be simple: select(NEW NAME = OLD NAME). Example:

starwars %>%
  select(alias=name, crib=homeworld, sex=gender)

## # A tibble: 87 x 3
##    alias              crib     sex      
##    <chr>              <chr>    <chr>    
##  1 Luke Skywalker     Tatooine masculine
##  2 C-3PO              Tatooine masculine
##  3 R2-D2              Naboo    masculine
##  4 Darth Vader        Tatooine masculine
##  5 Leia Organa        Alderaan feminine 
##  6 Owen Lars          Tatooine masculine
##  7 Beru Whitesun lars Tatooine feminine 
##  8 R5-D4              Tatooine masculine
##  9 Biggs Darklighter  Tatooine masculine
## 10 Obi-Wan Kenobi     Stewjon  masculine
## # ... with 77 more rows

Select helpers

starts_with(): Starts with a prefix

Example Select country names and GDP variables from g3.

g3 %>% select(`Country Name`, starts_with("YR"))

## # A tibble: 264 x 21
##    `Country Name` YR1999 YR2000 YR2001  YR2002 YR2003 YR2004 YR2005 YR2006
##    <chr>           <dbl>  <dbl>  <dbl>   <dbl>  <dbl>  <dbl>  <dbl>  <dbl>
##  1 Afghanistan     NA    NA      NA     NA      8.83   1.41  11.2     5.36
##  2 Albania         12.9   6.95    8.29   4.54   5.53   5.51   5.53    5.90
##  3 Algeria          3.20  3.82    3.01   5.61   7.20   4.30   5.91    1.68
##  4 American Samoa  NA    NA      NA     NA      0.814  0.538 -0.402  -4.17
##  5 Andorra          4.10  3.53    4.55   6.47  12.2    7.65   7.40    4.54
##  6 Angola           2.18  3.05    4.21  13.7    2.99  11.0   15.0    11.5 
##  7 Antigua and B~   3.71  6.69   -4.95   1.02   6.06   5.74   6.41   12.7 
##  8 Arab World       1.80  5.48    1.61   0.586  5.32   9.34   5.72    6.50
##  9 Argentina       -3.39 -0.789  -4.41 -10.9    8.84   9.03   8.85    8.05
## 10 Armenia          3.30  5.9     9.56  13.2   14.0   10.5   13.9    13.2 
## # ... with 254 more rows, and 12 more variables: YR2007 <dbl>, YR2008 <dbl>,
## #   YR2009 <dbl>, YR2010 <dbl>, YR2011 <dbl>, YR2012 <dbl>, YR2013 <dbl>,
## #   YR2014 <dbl>, YR2015 <dbl>, YR2016 <dbl>, YR2017 <dbl>, YR2018 <dbl>

contains(): Contains a literal string

Example Pick all those variables containing the word color from the starwars dataset.

starwars %>% select(name, contains("color"))

## # A tibble: 87 x 4
##    name               hair_color    skin_color  eye_color
##    <chr>              <chr>         <chr>       <chr>    
##  1 Luke Skywalker     blond         fair        blue     
##  2 C-3PO              <NA>          gold        yellow   
##  3 R2-D2              <NA>          white, blue red      
##  4 Darth Vader        none          white       yellow   
##  5 Leia Organa        brown         light       brown    
##  6 Owen Lars          brown, grey   light       blue     
##  7 Beru Whitesun lars brown         light       blue     
##  8 R5-D4              <NA>          white, red  red      
##  9 Biggs Darklighter  black         light       brown    
## 10 Obi-Wan Kenobi     auburn, white fair        blue-gray
## # ... with 77 more rows

num_range(): Matches a numerical range like x01, x02, x03

Example Select GDP data and country names from g3 during 2005 and 2010.

g3 %>% select(`Country Name`, num_range("YR",2005:2010))

## # A tibble: 264 x 7
##    `Country Name`      YR2005 YR2006  YR2007  YR2008  YR2009 YR2010
##    <chr>                <dbl>  <dbl>   <dbl>   <dbl>   <dbl>  <dbl>
##  1 Afghanistan         11.2     5.36 13.8     3.92    21.4   14.4  
##  2 Albania              5.53    5.90  5.98    7.50     3.35   3.71 
##  3 Algeria              5.91    1.68  3.37    2.36     1.63   3.63 
##  4 American Samoa      -0.402  -4.17  1.96   -2.61    -4.24   0.442
##  5 Andorra              7.40    4.54  0.0400 -8.59    -3.69  -5.36 
##  6 Angola              15.0    11.5  14.0    11.2      0.859  4.86 
##  7 Antigua and Barbuda  6.41   12.7   9.26   -0.0301 -12.1   -7.20 
##  8 Arab World           5.72    6.50  4.57    5.82     0.428  4.77 
##  9 Argentina            8.85    8.05  9.01    4.06    -5.92  10.1  
## 10 Armenia             13.9    13.2  13.7     6.90   -14.1    2.20 
## # ... with 254 more rows
…
In this example, we will calculate average height and mass by species and sex.

starwars %>%                              #select data
  group_by(species, sex) %>%              #group variables
  select(height, mass) %>%                #select columns
  dplyr::summarise(                       #compute averages
    ave.height = mean(height, na.rm = TRUE),
    ave.mass = mean(mass, na.rm = TRUE)   
  ) 

## Adding missing grouping variables: `species`, `sex`

## `summarise()` regrouping output by 'species' (override with `.groups` argument)

## # A tibble: 41 x 4
## # Groups:   species [38]
##    species   sex    ave.height ave.mass
##    <chr>     <chr>       <dbl>    <dbl>
##  1 Aleena    male          79      15  
##  2 Besalisk  male         198     102  
##  3 Cerean    male         198      82  
##  4 Chagrian  male         196     NaN  
##  5 Clawdite  female       168      55  
##  6 Droid     none         131.     69.8
##  7 Dug       male         112      40  
##  8 Ewok      male          88      20  
##  9 Geonosian male         183      80  
## 10 Gungan    male         209.     74  
## # ... with 31 more rows
…
